…
散布図

1965年の実質GDPと2014年の実質GDPの関係を見てみたいとしよう。データの準備として次のようなコードを書く。

gdp65to14 <-
  pwt90 %>% 
    filter(year == 1965 | year == 2014) %>% 
    group_by(country, countrycode) %>% 
    summarize(rgdp1965 = first(rgdpo), rgdp2014 = last(rgdpo)) %>% 
    filter(!is.na(rgdp1965)) %>% 
    ungroup()
gdp65to14

## # A tibble: 114 x 4
##    country                          countrycode rgdp1965 rgdp2014
##    <chr>                            <chr>          <dbl>    <dbl>
##  1 Algeria                          DZA           69687.  509313.
##  2 Argentina                        ARG           77557.  862902.
##  3 Australia                        AUS          182392. 1045083.
##  4 Austria                          AUT           78059.  389266.
##  5 Bangladesh                       BGD           83312.  464047.
##  6 Barbados                         BRB            2078.    2901.
##  7 Belgium                          BEL          105858.  448497.
##  8 Benin                            BEN            4416.   22538.
##  9 Bolivia (Plurinational State of) BOL            8248.   61893.
## 10 Botswana                         BWA             298.   33734.
## # ... with 104 more rows
…
