…
これは Penn World Table version 9.0 の Stata 形式のデータをダウンロードします。

読み込み

読み込むときは

pwt90 <- haven::read_dta("Data/pwt90.dta")

とします。haven というSTATA や SPSS のデータ形式を読み込むためのパッケージを使っています。読み込んだデータに pwt90 という名前を付けたので，コンソールに pwt90 と打ち込むと最初の方にある行と列が表示されます。

pwt90

## # A tibble: 11,830 x 47
##    countrycode country currency_unit  year rgdpe rgdpo   pop   emp   avh
##    <chr>       <chr>   <chr>         <dbl> <dbl> <dbl> <dbl> <dbl> <dbl>
##  1 ABW         Aruba   Aruban Guild…  1950    NA    NA    NA    NA    NA
##  2 ABW         Aruba   Aruban Guild…  1951    NA    NA    NA    NA    NA
##  3 ABW         Aruba   Aruban Guild…  1952    NA    NA    NA    NA    NA
##  4 ABW         Aruba   Aruban Guild…  1953    NA    NA    NA    NA    NA
##  5 ABW         Aruba   Aruban Guild…  1954    NA    NA    NA    NA    NA
##  6 ABW         Aruba   Aruban Guild…  1955    NA    NA    NA    NA    NA
##  7 ABW         Aruba   Aruban Guild…  1956    NA    NA    NA    NA    NA
##  8 ABW         Aruba   Aruban Guild…  1957    NA    NA    NA    NA    NA
##  9 ABW         Aruba   Aruban Guild…  1958    NA    NA    NA    NA    NA
## 10 ABW         Aruba   Aruban Guild…  1959    NA    NA    NA    NA    NA
## # ... with 11,820 more rows, and 38 more variables: hc <dbl>, ccon <dbl>,
## #   cda <dbl>, cgdpe <dbl>, cgdpo <dbl>, ck <dbl>, ctfp <dbl>,
## #   cwtfp <dbl>, rgdpna <dbl>, rconna <dbl>, rdana <dbl>, rkna <dbl>,
## #   rtfpna <dbl>, rwtfpna <dbl>, labsh <dbl>, delta <dbl>, xr <dbl>,
## #   pl_con <dbl>, pl_da <dbl>, pl_gdpo <dbl>, i_cig <dbl+lbl>,
## #   i_xm <dbl+lbl>, i_xr <dbl+lbl>, i_outlier <dbl+lbl>, cor_exp <dbl>,
## #   statcap <dbl>, csh_c <dbl>, csh_i <dbl>, csh_g <dbl>, csh_x <dbl>,
## #   csh_m <dbl>, csh_r <dbl>, pl_c <dbl>, pl_i <dbl>, pl_g <dbl>,
## #   pl_x <dbl>, pl_m <dbl>, pl_k <dbl>
…
STATA のラベル

pwt90.dta はもともとSTATAのデータなので，変数には説明用のラベルがついています。haven::read_dta() はラベル情報も同時にインポートします。単独の変数（列）についたラベルを知りたい場合は，次のコマンドを実行してみてください。

attr(pwt90$rgdpo, "label")

## [1] "Output-side real GDP at chained PPPs (in mil. 2011US$)"

すべての変数とラベルの関係を一覧するコードブックを作っておくと便利かもしれません。例えば，次のようにします。（map_chr() は purrr の関数で，同じ操作をベクトルの各要素やデータフレームの各列に繰り返すときに使います。何をやっているかを今すぐ理解できなくても構いません。）

labs <- map_chr(colnames(pwt90), ~ attr(pwt90[[.x]], "label"))  # ラベルの取得
(codebook <- tibble(variable = colnames(pwt90), label = labs))  # tibble に変換

## # A tibble: 47 x 2
##    variable     label                                                     
##    <chr>        <chr>                                                     
##  1 countrycode  3-letter ISO country code                                 
##  2 country      Country name                                              
##  3 currency_un… Currency unit                                             
##  4 year         Year                                                      
##  5 rgdpe        Expenditure-side real GDP at chained PPPs (in mil. 2011US…
##  6 rgdpo        Output-side real GDP at chained PPPs (in mil. 2011US$)    
##  7 pop          Population (in millions)                                  
##  8 emp          Number of persons engaged (in millions)                   
##  9 avh          Average annual hours worked by persons engaged (source: T…
## 10 hc           Human capital index, see note hc                          
## # ... with 37 more rows
…
列を選択するのは select() です。必要な列のみを取り出すために使います。 例えば，実質GDP の時系列をプロットしたいだけなら，PWTで必要なのは

country

year

rgdpo

だけです。この場合は，select() を使って他の変数を落としてしまいます。

pwt90 %>% 
  select(country, year, rgdpo)

## # A tibble: 11,830 x 3
##    country  year rgdpo
##    <chr>   <dbl> <dbl>
##  1 Aruba    1950    NA
##  2 Aruba    1951    NA
##  3 Aruba    1952    NA
##  4 Aruba    1953    NA
##  5 Aruba    1954    NA
##  6 Aruba    1955    NA
##  7 Aruba    1956    NA
##  8 Aruba    1957    NA
##  9 Aruba    1958    NA
## 10 Aruba    1959    NA
## # ... with 11,820 more rows

もし，選ぶのではなく除外したいという場合には，列名にマイナス符号を付けます。

pwt90 %>% 
  select(country, year, rgdpo) %>%   # ここまでは上と同じ3列の tibble
  select(-year)                      # year を除外する

## # A tibble: 11,830 x 2
##    country rgdpo
##    <chr>   <dbl>
##  1 Aruba      NA
##  2 Aruba      NA
##  3 Aruba      NA
##  4 Aruba      NA
##  5 Aruba      NA
##  6 Aruba      NA
##  7 Aruba      NA
##  8 Aruba      NA
##  9 Aruba      NA
## 10 Aruba      NA
## # ... with 11,820 more rows

filter

列を選ぶのは select() です。では行を選ぶには？filter() を使います。 例えば，日本のデータだけを取ってきたいとしましょう。次のようにします。

pwt90 %>% 
  filter(country == "Japan")

## # A tibble: 65 x 47
##    countrycode country currency_unit  year  rgdpe  rgdpo   pop   emp   avh
##    <chr>       <chr>   <chr>         <dbl>  <dbl>  <dbl> <dbl> <dbl> <dbl>
##  1 JPN         Japan   Yen            1950 2.18e5 2.10e5  83.3  38.2 2131.
##  2 JPN         Japan   Yen            1951 2.44e5 2.33e5  84.6  39.3 2113.
##  3 JPN         Japan   Yen            1952 2.66e5 2.57e5  85.9  40.5 2094.
##  4 JPN         Japan   Yen            1953 2.79e5 2.68e5  87.1  41.8 2077.
##  5 JPN         Japan   Yen            1954 2.96e5 2.82e5  88.2  42.3 2108.
##  6 JPN         Japan   Yen            1955 3.22e5 3.05e5  89.3  43.7 2135.
##  7 JPN         Japan   Yen            1956 3.44e5 3.27e5  90.2  44.5 2188.
##  8 JPN         Japan   Yen            1957 3.68e5 3.51e5  91.0  45.7 2212.
##  9 JPN         Japan   Yen            1958 4.00e5 3.75e5  91.8  45.9 2239.
## 10 JPN         Japan   Yen            1959 4.40e5 4.11e5  92.7  46.3 2263.
## # ... with 55 more rows, and 38 more variables: hc <dbl>, ccon <dbl>,
## #   cda <dbl>, cgdpe <dbl>, cgdpo <dbl>, ck <dbl>, ctfp <dbl>,
## #   cwtfp <dbl>, rgdpna <dbl>, rconna <dbl>, rdana <dbl>, rkna <dbl>,
## #   rtfpna <dbl>, rwtfpna <dbl>, labsh <dbl>, delta <dbl>, xr <dbl>,
## #   pl_con <dbl>, pl_da <dbl>, pl_gdpo <dbl>, i_cig <dbl+lbl>,
## #   i_xm <dbl+lbl>, i_xr <dbl+lbl>, i_outlier <dbl+lbl>, cor_exp <dbl>,
## #   statcap <dbl>, csh_c <dbl>, csh_i <dbl>, csh_g <dbl>, csh_x <dbl>,
## #   csh_m <dbl>, csh_r <dbl>, pl_c <dbl>, pl_i <dbl>, pl_g <dbl>,
## #   pl_x <dbl>, pl_m <dbl>, pl_k <dbl>
…
最後に select() との組み合わせです。

pwt90 %>% 
  filter(year > 1960, country %in% c("Japan", "United States", "Republic of Korea")) %>% 
  select(country, year, rgdpo, pop)

## # A tibble: 162 x 4
##    country  year    rgdpo   pop
##    <chr>   <dbl>    <dbl> <dbl>
##  1 Japan    1961  517845.  94.4
##  2 Japan    1962  566475.  95.2
##  3 Japan    1963  612924.  96.2
##  4 Japan    1964  682741.  97.2
##  5 Japan    1965  724052.  98.3
##  6 Japan    1966  798912   99.2
##  7 Japan    1967  883256. 100. 
##  8 Japan    1968  995241. 101. 
##  9 Japan    1969 1117313. 103. 
## 10 Japan    1970 1233349  104. 
## # ... with 152 more rows
…
## Error in .f(.x[[i]], ...): object 'nonexistent' not found

mutate / transmute

列を新たに追加するのは mutate() を使います。

例えば，次のコマンド, 最後の行は1人あたり実質GDPを追加します。

pwt90 %>% 
  filter(year > 1960, country %in% c("Japan", "United States", "Republic of Korea")) %>% 
  select(country, year, rgdpo, pop) %>% 
  mutate(rgdpo_pc = rgdpo / pop)

## # A tibble: 162 x 5
##    country  year    rgdpo   pop rgdpo_pc
##    <chr>   <dbl>    <dbl> <dbl>    <dbl>
##  1 Japan    1961  517845.  94.4    5488.
##  2 Japan    1962  566475.  95.2    5947.
##  3 Japan    1963  612924.  96.2    6370.
##  4 Japan    1964  682741.  97.2    7022.
##  5 Japan    1965  724052.  98.3    7367.
##  6 Japan    1966  798912   99.2    8055.
##  7 Japan    1967  883256. 100.     8814.
##  8 Japan    1968  995241. 101.     9821.
##  9 Japan    1969 1117313. 103.    10896.
## 10 Japan    1970 1233349  104.    11893.
## # ... with 152 more rows

ほしいデータが rgdpo_pc だけで，rgdpo, pop が必要なくなるようなケースも考えられます。その場合，transmute() を使うことができます。これは，select() と mutate() を同時に実行してくれます。

pwt90 %>% 
  filter(year > 1960, country %in% c("Japan", "United States", "Republic of Korea")) %>% 
  transmute(country, year, rgdpo_pc = rgdpo / pop)

## # A tibble: 162 x 3
##    country  year rgdpo_pc
##    <chr>   <dbl>    <dbl>
##  1 Japan    1961    5488.
##  2 Japan    1962    5947.
##  3 Japan    1963    6370.
##  4 Japan    1964    7022.
##  5 Japan    1965    7367.
##  6 Japan    1966    8055.
##  7 Japan    1967    8814.
##  8 Japan    1968    9821.
##  9 Japan    1969   10896.
## 10 Japan    1970   11893.
## # ... with 152 more rows
…
ということを設定しています。geom_line() というのは，折れ線グラフのレイヤーを作成するための関数です。引数が空の場合は，ggplot() に渡された データと外観特性を使って描写します。

xlab(), ylab() は軸のラベルのレイヤーを作ります。

group_by

上のような図を見ると「各国の平均成長率はどれぐらいだったのか？」といった疑問が湧いてきます。このような計算をするためには，group_by() と summarize() を使います。まずは，group_by() です。

pwt90 %>% 
  filter(year > 1960, country %in% c("Japan", "United States", "Republic of Korea")) %>% 
  transmute(country, year, rgdpo_pc = rgdpo / pop) %>% 
  group_by(country)

## # A tibble: 162 x 3
## # Groups:   country [3]
##    country  year rgdpo_pc
##    <chr>   <dbl>    <dbl>
##  1 Japan    1961    5488.
##  2 Japan    1962    5947.
##  3 Japan    1963    6370.
##  4 Japan    1964    7022.
##  5 Japan    1965    7367.
##  6 Japan    1966    8055.
##  7 Japan    1967    8814.
##  8 Japan    1968    9821.
##  9 Japan    1969   10896.
## 10 Japan    1970   11893.
## # ... with 152 more rows
…
