…
> sna_xls <- readxl::read_excel("Data/28ffm1rn_jp.xls", sheet = 1, range = "A7:X66")

> (rgdp_untidy <- sna_xls[41, 2:length(sna_xls)])

## # A tibble: 1 x 23
##   `1994` `1995` `1996` `1997` `1998` `1999` `2000` `2001` `2002` `2003`
##    <dbl>  <dbl>  <dbl>  <dbl>  <dbl>  <dbl>  <dbl>  <dbl>  <dbl>  <dbl>
## 1 4.27e5 4.41e5 4.54e5 4.54e5 4.50e5 4.53e5 4.64e5 4.62e5 4.66e5 4.75e5
## # ... with 13 more variables: `2004` <dbl>, `2005` <dbl>, `2006` <dbl>,
## #   `2007` <dbl>, `2008` <dbl>, `2009` <dbl>, `2010` <dbl>, `2011` <dbl>,
## #   `2012` <dbl>, `2013` <dbl>, `2014` <dbl>, `2015` <dbl>, `2016` <dbl>

> (rgdp <- tidyr::gather(rgdp_untidy, year, RGDP))

## # A tibble: 23 x 2
##    year     RGDP
##    <chr>   <dbl>
##  1 1994  426792.
##  2 1995  441147.
##  3 1996  453589.
##  4 1997  453748.
##  5 1998  449794.
##  6 1999  452936.
##  7 2000  464240.
##  8 2001  461642.
##  9 2002  465763.
## 10 2003  475119.
## # ... with 13 more rows
…
